<?xml version="1.0" standalone="no"?>
<!DOCTYPE svg PUBLIC "-//W3C//DTD SVG 1.1//EN" "http://www.w3.org/Graphics/SVG/1.1/DTD/svg11.dtd" >
<svg xmlns="http://www.w3.org/2000/svg">
<metadata>Generated by IcoMoon</metadata>
<defs>
<font id="icomoon" horiz-adv-x="1024">
<font-face units-per-em="1024" ascent="960" descent="-64" />
<missing-glyph horiz-adv-x="1024" />
<glyph unicode="&#x20;" horiz-adv-x="512" d="" />
<glyph unicode="&#xe900;" glyph-name="game-controller" d="M995.533 493.517c-45.158 252.211-146.125 326.605-199.834 326.605-83.814 0-105.318-62.31-283.699-64.41-178.381 2.099-199.885 64.41-283.699 64.41-53.709 0-154.726-74.394-199.885-326.605-25.754-143.974-53.709-358.912 12.902-384.717 82.893-32.102 111.002 48.179 202.035 116.019 92.416 68.762 136.755 84.941 268.646 84.941s176.23-16.179 268.646-84.941c91.034-67.789 119.142-148.122 202.035-116.019 66.611 25.805 38.656 240.691 12.851 384.717zM307.2 460.8c-56.576 0-102.4 45.875-102.4 102.4 0 56.576 45.824 102.4 102.4 102.4s102.4-45.824 102.4-102.4c0-56.525-45.875-102.4-102.4-102.4zM665.6 460.8c-28.314 0-51.2 22.886-51.2 51.2s22.886 51.2 51.2 51.2c28.314 0 51.2-22.886 51.2-51.2s-22.886-51.2-51.2-51.2zM768 563.2c-28.314 0-51.2 22.886-51.2 51.2s22.886 51.2 51.2 51.2c28.314 0 51.2-22.886 51.2-51.2s-22.886-51.2-51.2-51.2z" />
<glyph unicode="&#xe901;" glyph-name="text-document-inverted" d="M819.2 921.6h-614.4c-28.314 0-51.2-22.886-51.2-51.2v-819.2c0-28.262 22.886-51.2 51.2-51.2h614.4c28.314 0 51.2 22.938 51.2 51.2v819.2c0 28.262-22.886 51.2-51.2 51.2zM665.6 204.8h-307.2v102.4h307.2v-102.4zM665.6 409.6h-307.2v102.4h307.2v-102.4zM665.6 614.4h-307.2v102.4h307.2v-102.4z" />
<glyph unicode="&#xe902;" glyph-name="mouse" d="M496 448c-70.688 0-128 57.312-128 128h-192v-320c0-176.704 143.264-320 320-320s320 143.296 320 320v320h-192c0-70.688-57.312-128-128-128zM368 704c0 70.688 57.312 128 128 128s128-57.312 128-128v-64h192c0 176.736-143.264 320-320 320s-320-143.264-320-320h192v64zM464 736v-192c0-17.664 14.336-32 32-32s32 14.336 32 32v192c0 17.664-14.336 32-32 32s-32-14.336-32-32z" />
<glyph unicode="&#xe903;" glyph-name="home" d="M1024 369.556l-512 397.426-512-397.428v162.038l512 397.426 512-397.428zM896 384v-384h-256v256h-256v-256h-256v384l384 288z" />
<glyph unicode="&#xe910;" glyph-name="headphones" d="M288 384h-64v-448h64c17.6 0 32 14.4 32 32v384c0 17.6-14.4 32-32 32zM736 384c-17.602 0-32-14.4-32-32v-384c0-17.6 14.398-32 32-32h64v448h-64zM1024 448c0 282.77-229.23 512-512 512s-512-229.23-512-512c0-61.412 10.83-120.29 30.656-174.848-19.478-33.206-30.656-71.87-30.656-113.152 0-112.846 83.448-206.188 192-221.716v443.418c-31.914-4.566-61.664-15.842-87.754-32.378-5.392 26.718-8.246 54.364-8.246 82.676 0 229.75 186.25 416 416 416s416-186.25 416-416c0-28.314-2.83-55.968-8.22-82.696-26.1 16.546-55.854 27.848-87.78 32.418v-443.44c108.548 15.532 192 108.874 192 221.714 0 41.274-11.178 79.934-30.648 113.138 19.828 54.566 30.648 113.452 30.648 174.866z" />
<glyph unicode="&#xe942;" glyph-name="phone" d="M704 320c-64-64-64-128-128-128s-128 64-192 128-128 128-128 192 64 64 128 128-128 256-192 256-192-192-192-192c0-128 131.5-387.5 256-512s384-256 512-256c0 0 192 128 192 192s-192 256-256 192z" />
<glyph unicode="&#xe955;" glyph-name="keyboard" horiz-adv-x="1152" d="M1088 832h-1024c-35.2 0-64-28.8-64-64v-640c0-35.2 28.8-64 64-64h1024c35.2 0 64 28.8 64 64v640c0 35.2-28.8 64-64 64zM640 704h128v-128h-128v128zM832 512v-128h-128v128h128zM448 704h128v-128h-128v128zM640 512v-128h-128v128h128zM256 704h128v-128h-128v128zM448 512v-128h-128v128h128zM128 704h64v-128h-64v128zM128 512h128v-128h-128v128zM192 192h-64v128h64v-128zM768 192h-512v128h512v-128zM1024 192h-192v128h192v-128zM1024 384h-128v128h128v-128zM1024 576h-192v128h192v-128z" />
<glyph unicode="&#xea09;" glyph-name="question" d="M448 256h128v-128h-128zM704 704c35.346 0 64-28.654 64-64v-192l-192-128h-128v64l192 128v64h-320v128h384zM512 864c-111.118 0-215.584-43.272-294.156-121.844s-121.844-183.038-121.844-294.156c0-111.118 43.272-215.584 121.844-294.156s183.038-121.844 294.156-121.844c111.118 0 215.584 43.272 294.156 121.844s121.844 183.038 121.844 294.156c0 111.118-43.272 215.584-121.844 294.156s-183.038 121.844-294.156 121.844zM512 960v0c282.77 0 512-229.23 512-512s-229.23-512-512-512c-282.77 0-512 229.23-512 512s229.23 512 512 512z" />
</font></defs></svg>